{
  "current": {
    "color_background": "#ffffff",
    "color_headings": "#222222",
    "color_text": "#4d4d4d",
    "color_links": "#69c6b3",
    "color_button_background": "#fcb043",
    "color_button_text": "#1a390c",
    "color_header_background": "#ffffff",
    "color_header_text": "#69c6b3",
    "color_footer_background": "#f8f8f8",
    "color_footer_text": "#5c5c5c",
    "type_body": "cabin_n4",
    "type_heading": "cabin_n7",
    "product_show_vendor": true,
    "product_show_sku": true,
    "enable_image_zoom": true,
    "image_zoom_level": "min",
    "product_enable_recently_viewed_products": true,
    "product_option_style": "radio",
    "product_sales_badge": true,
    "product_sales_badge_style": "percentile",
    "product_ratings_reviews": true,
    "product_social_sharing": true,
    "product_slideshow_style": "short",
    "product_grid_show_second_image": true,
    "product_grid_emphasize_price": true,
    "product_grid_image_style": "natural",
    "product_grid_quick_shop": true,
    "product_grid_quick_buy": true,
    "quickshop_show_dcb": true,
    "quickshop_product_cart_redirect": false,
    "social_default_image": "",
    "social_facebook": "https:\/\/www.facebook.com\/Hilifevitamins\/",
    "social_twitter": "",
    "social_google": "",
    "social_pinterest": "",
    "social_instagram": "https:\/\/www.instagram.com\/hilifevitamins\/",
    "social_tumblr": "",
    "social_vimeo": "",
    "social_youtube": "",
    "social_linkedin": "",
    "social_email": "",
    "favicon": "shopify:\/\/shop_images\/Screen_Shot_2019-01-04_at_16.35.00.png",
    "enable_currency_converter": true,
    "currency_display_format": "money_with_currency_format",
    "currency_converter_currencies": "INR GBP CAD USD AUD EUR JPY",
    "currency_converter_default": "USD",
    "enable_checkout_lock_icon": true,
    "continue_shopping_url": "shopify:\/\/collections\/all",
    "continue_url_cart": true,
    "continue_url_404": true,
    "checkout_header_image": "",
    "checkout_logo_image": "shopify:\/\/shop_images\/FB03PNG_820x312_8c4f601d-4166-432b-b5f2-485e35be19ae.png",
    "checkout_logo_position": "center",
    "checkout_logo_size": "large",
    "checkout_body_background_image": "",
    "checkout_body_background_color": "#fff",
    "checkout_input_background_color_mode": "white",
    "checkout_sidebar_background_image": "",
    "checkout_sidebar_background_color": "#fafafa",
    "checkout_heading_font": "-apple-system, BlinkMacSystemFont, 'Segoe UI', Roboto, Helvetica, Arial, sans-serif, 'Apple Color Emoji', 'Segoe UI Emoji', 'Segoe UI Symbol'",
    "checkout_body_font": "-apple-system, BlinkMacSystemFont, 'Segoe UI', Roboto, Helvetica, Arial, sans-serif, 'Apple Color Emoji', 'Segoe UI Emoji', 'Segoe UI Symbol'",
    "checkout_accent_color": "#69c6b3",
    "checkout_button_color": "#fcb043",
    "checkout_error_color": "#e32c2b",
    "sections": {
      "static-header": {
        "type": "static-header",
        "blocks": {
          "1544572695272": {
            "type": "meganav_images",
            "settings": {
              "meganav_trigger": "",
              "image_1": "",
              "text_1": "",
              "link_1": "",
              "position_1": "first",
              "size_1": "small",
              "image_2": "",
              "text_2": "",
              "link_2": "",
              "position_2": "first",
              "size_2": "small"
            }
          }
        },
        "block_order": [
          "1544572695272"
        ],
        "settings": {
          "sticky_header": true,
          "logo": "shopify:\/\/shop_images\/FB03PNG_820x312_0a4a41f5-56b1-4844-8b28-8368b6c4f768.png",
          "logo_height": 100,
          "logo_width": 200,
          "enable_live_search": true,
          "enable_live_search_images": true,
          "enable_live_search_articles_pages": true,
          "quick_links": "",
          "menu": "main-menu",
          "show_announcement": true,
          "homepage_announcement": false,
          "announcement_text": "",
          "announcement_text_mobile": "",
          "announcement_link": "",
          "announcement_color": "#ffffff",
          "announcement_background": "#69c6b3",
          "small_promo_heading": "",
          "small_promo_text": "",
          "small_promo_text_mobile": "",
          "small_promo_link": "",
          "small_promo_icon": "none",
          "image": ""
        }
      },
      "home-promo-mosaic": {
        "type": "dynamic-promo-mosaic",
        "blocks": {
          "promo-mosaic-block-1": {
            "type": "promotion",
            "settings": {
              "image": "",
              "title": "Mosaic",
              "text": "Use this section to welcome customers to your store, say a bit about your brand, or share news.",
              "color": "#4d4d4d",
              "block_link": "",
              "button_text": "",
              "button_style": "primary",
              "show_overlay": false,
              "background": "",
              "opacity": 50
            }
          },
          "promo-mosaic-block-2": {
            "type": "promotion",
            "settings": {
              "image": "",
              "title": "Mosaic",
              "text": "Use this section to welcome customers to your store, say a bit about your brand, or share news.",
              "color": "#4d4d4d",
              "block_link": "",
              "button_text": "",
              "button_style": "primary",
              "show_overlay": false,
              "background": "",
              "opacity": 50
            }
          },
          "promo-mosaic-block-3": {
            "type": "promotion",
            "settings": {
              "image": "",
              "title": "Mosaic",
              "text": "Use this section to welcome customers to your store, say a bit about your brand, or share news.",
              "color": "#4d4d4d",
              "block_link": "",
              "button_text": "",
              "button_style": "primary",
              "show_overlay": false,
              "background": "",
              "opacity": 50
            }
          }
        },
        "block_order": [
          "promo-mosaic-block-1",
          "promo-mosaic-block-2",
          "promo-mosaic-block-3"
        ],
        "settings": {
          "title": "Mosaic",
          "section_height": "small",
          "text_alignment": "top-left",
          "maintain_aspect_ratio": false,
          "compress_blocks": false
        }
      },
      "home-blog-posts": {
        "type": "dynamic-blog-posts",
        "settings": {
          "title": "Get Inspired",
          "blog": "",
          "show_date": true,
          "show_author": true,
          "show_excerpt": true
        }
      },
      "home-featured-collection-1": {
        "type": "dynamic-featured-collection",
        "settings": {
          "title": "Featured collection",
          "collection": "",
          "banner_color": "#ffffff",
          "banner_image": ""
        }
      },
      "home-promo-grid": {
        "type": "dynamic-promo-grid",
        "blocks": {
          "promo-grid-block-1": {
            "type": "promotion",
            "settings": {
              "image": "",
              "title": "Grid",
              "text": "Use this section to welcome customers to your store, say a bit about your brand, or share news.",
              "color": "#4d4d4d",
              "block_link": "",
              "button_text": "",
              "button_style": "primary",
              "promo_width": "half-width",
              "show_overlay": false,
              "background": "",
              "opacity": 50
            }
          },
          "promo-grid-block-2": {
            "type": "promotion",
            "settings": {
              "image": "",
              "title": "Grid",
              "text": "Use this section to welcome customers to your store, say a bit about your brand, or share news.",
              "color": "#4d4d4d",
              "block_link": "",
              "button_text": "",
              "button_style": "primary",
              "promo_width": "half-width",
              "show_overlay": false,
              "background": "",
              "opacity": 50
            }
          },
          "promo-grid-block-3": {
            "type": "promotion",
            "settings": {
              "image": "",
              "title": "Grid",
              "text": "Use this section to welcome customers to your store, say a bit about your brand, or share news.",
              "color": "#4d4d4d",
              "block_link": "",
              "button_text": "",
              "button_style": "primary",
              "promo_width": "half-width",
              "show_overlay": false,
              "background": "",
              "opacity": 50
            }
          },
          "promo-grid-block-4": {
            "type": "promotion",
            "settings": {
              "image": "",
              "title": "Grid",
              "text": "Use this section to welcome customers to your store, say a bit about your brand, or share news.",
              "color": "#4d4d4d",
              "block_link": "",
              "button_text": "",
              "button_style": "primary",
              "promo_width": "half-width",
              "show_overlay": false,
              "background": "",
              "opacity": 50
            }
          }
        },
        "block_order": [
          "promo-grid-block-1",
          "promo-grid-block-2",
          "promo-grid-block-3",
          "promo-grid-block-4"
        ],
        "settings": {
          "title": "Grid",
          "section_height": "small",
          "text_alignment": "top-left",
          "maintain_aspect_ratio": false,
          "compress_blocks": false
        }
      },
      "home-featured-collection-2": {
        "type": "dynamic-featured-collection",
        "settings": {
          "title": "",
          "collection": "",
          "banner_color": "#ffffff",
          "banner_image": ""
        }
      },
      "static-slideshow": {
        "type": "static-slideshow",
        "blocks": {
          "static-slideshow-0": {
            "type": "slide",
            "settings": {
              "background_image": "",
              "title": "Slideshow",
              "text": "Introduce customers to your shop with lifestyle and product imagery",
              "color": "#ffffff",
              "link": "",
              "text_alignment": "center",
              "button_one_label": "Button",
              "button_one_link": "",
              "button_one_style": "primary",
              "button_two_label": "",
              "button_two_link": "",
              "button_two_style": "primary",
              "show_overlay": true,
              "overlay_color": "#000000",
              "overlay_opacity": 50
            }
          },
          "static-slideshow-1": {
            "type": "slide",
            "settings": {
              "background_image": "",
              "title": "Slideshow",
              "text": "Introduce customers to your shop with lifestyle and product imagery",
              "color": "#ffffff",
              "link": "",
              "text_alignment": "center",
              "button_one_label": "Button",
              "button_one_link": "",
              "button_one_style": "primary",
              "button_two_label": "",
              "button_two_link": "",
              "button_two_style": "primary",
              "show_overlay": true,
              "overlay_color": "#000000",
              "overlay_opacity": 50
            }
          }
        },
        "block_order": [
          "static-slideshow-0",
          "static-slideshow-1"
        ],
        "settings": {
          "show_slideshow": true,
          "enable_autoplay": true,
          "autoplay_duration": 8,
          "slideshow_height": "medium"
        }
      },
      "static-highlights-banners": {
        "type": "static-highlights-banners",
        "blocks": {
          "static-highlights-banners-0": {
            "type": "highlight",
            "settings": {
              "icon": "icon-delivery",
              "image": "",
              "title": "Free Shipping",
              "text": "<p>When you spend $49<\/p>",
              "link": ""
            }
          },
          "static-highlights-banners-1": {
            "type": "highlight",
            "settings": {
              "icon": "icon-smile",
              "image": "",
              "title": "Satisfaction Guaranteed",
              "text": "<p>100% satisfaction guaranteed<\/p>",
              "link": ""
            }
          },
          "static-highlights-banners-2": {
            "type": "highlight",
            "settings": {
              "icon": "icon-heart",
              "image": "",
              "title": "Personalized Service",
              "text": "<p>Free consultation<\/p>",
              "link": ""
            }
          },
          "static-highlights-banners-3": {
            "type": "highlight",
            "settings": {
              "icon": "icon-store",
              "image": "",
              "title": "Accredited Business",
              "text": "<p>Established since 1971<\/p>",
              "link": ""
            }
          }
        },
        "block_order": [
          "static-highlights-banners-0",
          "static-highlights-banners-1",
          "static-highlights-banners-2",
          "static-highlights-banners-3"
        ],
        "settings": {
          "show_highlights_banner": true,
          "color": "#4d4d4d",
          "icon_color": "#4d4d4d",
          "background_color": "#f8f8f8"
        }
      },
      "static-footer": {
        "type": "static-footer",
        "blocks": {
          "1545410683559": {
            "type": "social_accounts",
            "settings": {}
          },
          "1545416954123": {
            "type": "menu",
            "settings": {
              "menu": "about"
            }
          },
          "1545411643818": {
            "type": "menu",
            "settings": {
              "menu": "explore"
            }
          },
          "1545411658146": {
            "type": "menu",
            "settings": {
              "menu": "support"
            }
          }
        },
        "block_order": [
          "1545410683559",
          "1545416954123",
          "1545411643818",
          "1545411658146"
        ],
        "settings": {
          "payment_icons": true,
          "additional_menu": "footer"
        }
      },
      "1544565713402": {
        "type": "dynamic-instagram-feed",
        "settings": {
          "title": "Thank you for the ❤️",
          "access_token": "9864795413.1677ed0.4b66649704b944c09ea4a0ec5db00fee"
        }
      },
      "static-product": {
        "type": "static-product",
        "settings": {
          "layout": "layout--two-col",
          "enable_related_products": true,
          "enable_video_autoplay": true,
          "show_dcb": true,
          "product_cart_redirect": false
        }
      },
      "static-collection": {
        "type": "static-collection",
        "settings": {
          "show_collection_image": true,
          "products_per_page_range": 24,
          "sort_by": true,
          "show_by": true,
          "grid_list": true,
          "show_sidebar": true,
          "filter_style": "tags",
          "filter_limit": "999",
          "filter_position": "above_menus",
          "menu_depth_range": 1
        }
      },
      "static-cart": {
        "type": "static-cart",
        "settings": {
          "enable_order_notes": false,
          "enable_shipping_calc": true,
          "shipping_calc_default_country": "United States"
        }
      },
      "1545411236237": {
        "type": "pxs-newsletter",
        "settings": {
          "title": "Newsletter",
          "text": "<p>Invite customers to join your mailing list.<\/p>",
          "image": "",
          "desktop_alignment": "left",
          "mobile_alignment": "top"
        }
      },
      "1546292156946": {
        "type": "pxs-map",
        "settings": {
          "section_height": "small",
          "title": "Hilife Vitamins",
          "content": "<p>48 River Road<\/p>\n<p>Victoria, BC<\/p>",
          "text_alignment": "center",
          "layout": "overlay-center-center",
          "layout_mobile": "below",
          "address": "48 River Road Victoria,",
          "api_key": "",
          "enable_custom_colors": false,
          "foreground_color": "#292929",
          "background_color": "#ffffff",
          "zoom": 2,
          "image": "",
          "image_position": "center center",
          "overlay_color": "#000000",
          "opacity": 10
        }
      }
    },
    "content_for_index": [
      "home-promo-mosaic",
      "home-promo-grid",
      "home-featured-collection-1",
      "home-featured-collection-2",
      "home-blog-posts",
      "1544565713402",
      "1545411236237",
      "1546292156946"
    ]
  },
  "presets": {
    "Supply": {
      "color_background": "#ffffff",
      "color_headings": "#222222",
      "color_text": "#4d4d4d",
      "color_links": "#1E8570",
      "color_button_background": "#ffab41",
      "color_button_text": "#1a390c",
      "color_header_background": "#30656b",
      "color_header_text": "#ffffff",
      "color_footer_background": "#f8f8f8",
      "color_footer_text": "#5c5c5c",
      "type_body": "cabin_n4",
      "type_heading": "cabin_n7",
      "continue_shopping_url": "shopify:\/\/collections\/all",
      "sections": {
        "static-header": {
          "type": "static-header",
          "settings": {
            "announcement_background": "#29927d"
          }
        },
        "home-promo-mosaic": {
          "type": "dynamic-promo-mosaic",
          "blocks": {
            "promo-mosaic-block-1": {
              "type": "promotion",
              "settings": {}
            },
            "promo-mosaic-block-2": {
              "type": "promotion",
              "settings": {}
            },
            "promo-mosaic-block-3": {
              "type": "promotion",
              "settings": {}
            }
          },
          "block_order": [
            "promo-mosaic-block-1",
            "promo-mosaic-block-2",
            "promo-mosaic-block-3"
          ],
          "settings": {}
        },
        "home-blog-posts": {
          "type": "dynamic-blog-posts",
          "settings": {}
        },
        "home-twitter-feed": {
          "type": "dynamic-twitter-feed",
          "settings": {}
        },
        "home-featured-collection-1": {
          "type": "dynamic-featured-collection",
          "settings": {}
        },
        "home-promo-grid": {
          "type": "dynamic-promo-grid",
          "blocks": {
            "promo-grid-block-1": {
              "type": "promotion",
              "settings": {}
            },
            "promo-grid-block-2": {
              "type": "promotion",
              "settings": {}
            },
            "promo-grid-block-3": {
              "type": "promotion",
              "settings": {}
            },
            "promo-grid-block-4": {
              "type": "promotion",
              "settings": {}
            }
          },
          "block_order": [
            "promo-grid-block-1",
            "promo-grid-block-2",
            "promo-grid-block-3",
            "promo-grid-block-4"
          ],
          "settings": {}
        },
        "home-featured-collection-2": {
          "type": "dynamic-featured-collection",
          "settings": {
            "title": ""
          }
        }
      },
      "content_for_index": [
        "home-promo-mosaic",
        "home-promo-grid",
        "home-featured-collection-1",
        "home-featured-collection-2",
        "home-blog-posts",
        "home-twitter-feed"
      ]
    },
    "Graphic": {
      "color_background": "#ffffff",
      "color_headings": "#484848",
      "color_text": "#4d4d4d",
      "color_links": "#e32619",
      "color_button_background": "#e32619",
      "color_button_text": "#ffffff",
      "color_header_background": "#ffffff",
      "color_header_text": "#484848",
      "color_footer_background": "#ffffff",
      "color_footer_text": "#686868",
      "type_body": "lato_n4",
      "type_heading": "futura_n7",
      "continue_shopping_url": "shopify:\/\/collections\/all",
      "sections": {
        "static-header": {
          "type": "static-header",
          "settings": {
            "announcement_background": "#e32619"
          }
        },
        "static-collection": {
          "type": "static-collection",
          "settings": {
            "filter_style": "groups",
            "filter_limit": "5"
          }
        },
        "home-promo-mosaic": {
          "type": "dynamic-promo-mosaic",
          "blocks": {
            "home-promo-mosaic-1": {
              "type": "promotion",
              "settings": {}
            },
            "home-promo-mosaic-2": {
              "type": "promotion",
              "settings": {}
            },
            "home-promo-mosaic-3": {
              "type": "promotion",
              "settings": {}
            },
            "home-promo-mosaic-4": {
              "type": "promotion",
              "settings": {}
            }
          },
          "block_order": [
            "home-promo-mosaic-1",
            "home-promo-mosaic-2",
            "home-promo-mosaic-3",
            "home-promo-mosaic-4"
          ],
          "settings": {}
        },
        "home-promo-grid": {
          "type": "dynamic-promo-grid",
          "blocks": {
            "home-promo-grid-1": {
              "type": "promotion",
              "settings": {
                "promo_width": "full-width"
              }
            },
            "home-promo-grid-2": {
              "type": "promotion",
              "settings": {}
            },
            "home-promo-grid-3": {
              "type": "promotion",
              "settings": {}
            }
          },
          "block_order": [
            "home-promo-grid-1",
            "home-promo-grid-2",
            "home-promo-grid-3"
          ],
          "settings": {}
        },
        "home-featured-collection-1": {
          "type": "dynamic-featured-collection",
          "settings": {}
        },
        "home-menu-list": {
          "type": "dynamic-menu-list",
          "blocks": {
            "home-menu-list-1": {
              "type": "menu",
              "settings": {}
            },
            "home-menu-list-2": {
              "type": "menu",
              "settings": {}
            },
            "home-menu-list-3": {
              "type": "menu",
              "settings": {}
            }
          },
          "block_order": [
            "home-menu-list-1",
            "home-menu-list-2",
            "home-menu-list-3"
          ],
          "settings": {
            "title": "Menu list"
          }
        },
        "home-blog-posts": {
          "type": "dynamic-blog-posts",
          "settings": {}
        },
        "home-twitter-feed": {
          "type": "dynamic-twitter-feed",
          "settings": {}
        },
        "home-instagram-feed": {
          "type": "dynamic-instagram-feed",
          "settings": {}
        }
      },
      "content_for_index": [
        "home-promo-mosaic",
        "home-promo-grid",
        "home-featured-collection-1",
        "home-menu-list",
        "home-blog-posts",
        "home-instagram-feed",
        "home-twitter-feed"
      ]
    },
    "Industrial": {
      "color_background": "#ffffff",
      "color_headings": "#4c4c4c",
      "color_text": "#4c5154",
      "color_links": "#0076de",
      "color_button_background": "#0076de",
      "color_button_text": "#ffffff",
      "color_header_background": "#1d2236",
      "color_header_text": "#ffffff",
      "color_footer_background": "#edeff3",
      "color_footer_text": "#5c5c5c",
      "type_body": "libre_franklin_n4",
      "type_heading": "arimo_n7",
      "continue_shopping_url": "shopify:\/\/collections\/all",
      "sections": {
        "static-header": {
          "type": "static-header",
          "settings": {
            "announcement_background": "#0076de"
          }
        },
        "static-footer": {
          "type": "static-footer",
          "blocks": {
            "static-footer-1": {
              "type": "menu",
              "settings": {
                "menu": "footer"
              }
            },
            "static-footer-3": {
              "type": "newsletter",
              "settings": {}
            }
          },
          "block_order": [
            "static-footer-1",
            "static-footer-3"
          ],
          "settings": {
            "additional_menu": ""
          }
        },
        "static-blog": {
          "type": "static-blog",
          "settings": {
            "show_author": false
          }
        },
        "static-product": {
          "type": "static-product",
          "settings": {
            "layout": "layout--three-col"
          }
        },
        "static-article": {
          "type": "static-article",
          "settings": {
            "show_author": false
          }
        },
        "static-collection": {
          "type": "static-collection",
          "settings": {
            "filter_style": "groups"
          }
        },
        "home-promo-mosaic": {
          "type": "dynamic-promo-mosaic",
          "blocks": {
            "home-promo-mosaic-1": {
              "type": "promotion",
              "settings": {}
            },
            "home-promo-mosaic-2": {
              "type": "promotion",
              "settings": {}
            },
            "home-promo-mosaic-3": {
              "type": "promotion",
              "settings": {}
            },
            "home-promo-mosaic-4": {
              "type": "promotion",
              "settings": {}
            },
            "home-promo-mosaic-5": {
              "type": "promotion",
              "settings": {}
            }
          },
          "block_order": [
            "home-promo-mosaic-1",
            "home-promo-mosaic-2",
            "home-promo-mosaic-3",
            "home-promo-mosaic-4",
            "home-promo-mosaic-5"
          ],
          "settings": {
            "section_height": "medium"
          }
        },
        "home-featured-collection": {
          "type": "dynamic-featured-collection",
          "settings": {}
        },
        "home-promo-grid": {
          "type": "dynamic-promo-grid",
          "blocks": {
            "home-promo-grid-1": {
              "type": "promotion",
              "settings": {}
            },
            "home-promo-grid-2": {
              "type": "promotion",
              "settings": {}
            }
          },
          "block_order": [
            "home-promo-grid-1",
            "home-promo-grid-2"
          ],
          "settings": {}
        },
        "home-blog-posts": {
          "type": "dynamic-blog-posts",
          "settings": {}
        },
        "home-collection-list": {
          "type": "dynamic-collection-list",
          "blocks": {
            "home-collection-list-1": {
              "type": "collection",
              "settings": {}
            },
            "home-collection-list-2": {
              "type": "collection",
              "settings": {}
            },
            "home-collection-list-3": {
              "type": "collection",
              "settings": {}
            },
            "home-collection-list-4": {
              "type": "collection",
              "settings": {}
            }
          },
          "block_order": [
            "home-collection-list-1",
            "home-collection-list-2",
            "home-collection-list-3",
            "home-collection-list-4"
          ],
          "settings": {}
        }
      },
      "content_for_index": [
        "home-promo-mosaic",
        "home-featured-collection",
        "home-promo-grid",
        "home-collection-list",
        "home-blog-posts"
      ]
    }
  }
}